…
Loading dataset

``` r
data("lidar")
```

Look at data

``` r
lidar
```

    ## # A tibble: 221 × 2
    ##    range logratio
    ##    <dbl>    <dbl>
    ##  1   390  -0.0504
    ##  2   391  -0.0601
    ##  3   393  -0.0419
    ##  4   394  -0.0510
    ##  5   396  -0.0599
    ##  6   397  -0.0284
    ##  7   399  -0.0596
    ##  8   400  -0.0399
    ##  9   402  -0.0294
    ## 10   403  -0.0395
    ## # ℹ 211 more rows
…
Did this work? YEESSSSSSSSSSSSSS!!!!

``` r
cv_df |> pull(train) |>  nth(5)
```

    ## # A tibble: 176 × 3
    ##    range logratio    id
    ##    <dbl>    <dbl> <int>
    ##  1   390  -0.0504     1
    ##  2   391  -0.0601     2
    ##  3   393  -0.0419     3
    ##  4   394  -0.0510     4
    ##  5   399  -0.0596     7
    ##  6   400  -0.0399     8
    ##  7   402  -0.0294     9
    ##  8   403  -0.0395    10
    ##  9   405  -0.0476    11
    ## 10   406  -0.0604    12
    ## # ℹ 166 more rows
…
